{
	"configurations" : 
	[
		{
			"directories" : 
			[
				{
					"build" : ".",
					"hasInstallRule" : true,
					"jsonFile" : "directory-.-Debug-7264ca733a5b259e4a21.json",
					"minimumCMakeVersion" : 
					{
						"string" : "3.5"
					},
					"projectIndex" : 0,
					"source" : ".",
					"targetIndexes" : 
					[
						0
					]
				}
			],
			"name" : "Debug",
			"projects" : 
			[
				{
					"directoryIndexes" : 
					[
						0
					],
					"name" : "lupin",
					"targetIndexes" : 
					[
						0
					]
				}
			],
			"targets" : 
			[
				{
					"directoryIndex" : 0,
					"id" : "lupin::@6890427a1f51a3e7e1df",
					"jsonFile" : "target-lupin-Debug-46f3a040190dd3eb194d.json",
					"name" : "lupin",
					"projectIndex" : 0
				}
			]
		}
	],
	"kind" : "codemodel",
	"paths" : 
	{
		"build" : "C:/Users/Sylvestre/Desktop/Workspace/P1/Lupin/Test Technique/build-lupin-Desktop_Qt_5_15_2_MinGW_64_bit-Debug",
		"source" : "C:/Users/Sylvestre/Desktop/Workspace/P1/Lupin/Test Technique/lupin"
	},
	"version" : 
	{
		"major" : 2,
		"minor" : 4
	}
}
